rarity,type,name,PictureLink,Trait,command,energy,power,health,direction_f,direction_l,direction_r,direction_b,text_en,text_th
R,unit,Geisha of Cherry Blossom,[Shangri-La][geisha][NoSpace Knc] final,Spirit,1,0,2000,8000,1,1,1,1,"Deploying(When this unit enters the battlefield), draw 2 cards then discard a card.","Deploying(เมื่อยูนิตนี้เข้ามาในแบทเทิลฟิลด์), จั่วการ์ด 2 ใบ จากนั้นทิ้งการ์ดในมือ 1 ใบ"
R,unit,Masked Assassin,[Shangri-la][psytis][Oni shinobi],Ninja,1,1,4000,9000,0,0,0,1,"If you have ""Shin"" in the battlefield, this unit gets +1000 Power and can move without spending C.",ถ้าเรามี 'Shin' อยู่ในแบทเทิลฟิลด์ ยูนิตนี้ +1000 Power และสามารถเคลื่อนย้ายได้โดยไม่ต้องจ่าย C
RR,unit,Jade Flamebeater,[Shangri-la][Fuya][Flamebeater],Fox / Fire,2,0,4000,9000,0,1,1,0,[Discard a card] Retire target ongoing event card. Use this ability only once per turn.,[ทิ้งการ์ดในมือ 1 ใบ] รีไทร์การ์ดอีเวนท์ Ongoing เป้าหมาย ความสามารถนี้ใช้ได้เทิร์นละ 1 ครั้ง
R,unit,Predator of the Mountain,[Shangri-la][Yunz][แฮ่],Beast / Demon,2,0,4000,10000,1,1,0,0,"When a friendly {Beast} unit enters the battlefield, move this unit and this unit gets +1000 Power this turn. This ability triggers only once per turn.",เมื่อยูนิต {Beast} ฝ่ายเราเข้าสู่แบทเทิลฟิลด์ เคลื่อนย้ายยูนิตนี้และในเทิร์นนี้ยูนิตนี้ +1000 Power ความสามารถนี้เกิดขึ้นได้ไม่เกินเทิร์นละ 1 ครั้ง
R,unit,The Tamer of Black Crow,[Shangri-la] [Worakit Chusanachoti] [ZianGirl],Hunter / Maiden,2,0,3000,10000,1,1,1,1,"When you move this unit, you may pay E to move target friendly {Beast} unit. This ability triggers only once per turn.",เมื่อเราเคลื่อนย้ายยูนิตนี้ เราสามารถจ่าย E เพื่อเคลื่อนย้ายยูนิต {Beast} เป้าหมายฝ่ายเราได้ ความสามารถนี้เกิดขึ้นไม่เกินเทิร์นละ 1 ครั้ง
LG,Legendary unit,"Shuten-doji, The Oni King",[Shangri-La][Diezonezero@NOAH Team][Onimucha King],Oni,4,0,10000,17000,0,0,0,0,"At the end of your planning phase, this unit cannot attack this turn unless you have 1 or more unused command.
At the begining of your combat phase, discard a card this unit gains attack direction of the discarded card this turn.","เมื่อจบ Planning Phase ของเรา ในเทิร์นนี้ยูนิตนี้จะไม่สามารถโจมตีได้ ถ้าเราไม่เหลือคอมมานด์ที่ไม่ได้ใช้อย่างน้อย 1 คอมมานด์
เมื่อเริ่ม Combat Phase ของเรา ทิ้งการ์ดในมือ 1 ใบ ในเทิร์นนี้ยูนิตนี้ได้รับทิศทางการโจมตีของการ์ดใบที่ถูกทิ้ง"
LG,Legendary unit,"Hikamaru, The Emperor of Sacred Lake",[Shangri-la][Rosaria][Qilin Enperor],Beast,4,1,3000,14000,1,1,1,1,"Deploying, you may deploy a non-Legendary {Beast} unit from your hand to the battlefield.
At the beginning of yout turn, you may switch target friendly {Beast} unit in the battlefield with a non-Legendary {Beast} unit in your hand.","Deploying, เราสามารถนำยูนิต {Beast} ที่ไม่ใช่ Legendary จากมือเข้าสู่แบทเทิลฟิลด์
เมื่อเริ่มเทิร์นของเรา เราสามารถสลับยูนิต {Beast} เป้าหมายฝ่ายเรากับยูนิต {Beast} ที่ไม่ใช่ Legendary ในมือเราได้"
RR,event,Four-Wind Sword Technique,[Shangri-la][Bloodink][four-wind sword technique],Planning / Ongoing,0,1,0,0,0,0,0,0,"Attached unit gains all attack direction. At the beginning of your combat phase, if the attached unit is ""Kensai"", you may retired this card to move the attached unit.","ยูนิตที่ติดการ์ดใบนี้ได้รับทิศทางการโจมตีทุกทิศทาง
เมื่อเริ่ม Combat Phase ของเรา ถ้ายูนิตที่ติดการ์ดใบนี้คือ 'Kensai' เราสามารถรีไทร์การ์ดใบนี้เพื่อเคลื่อนย้ายยูนิตที่ติดการ์ดใบนี้ได้"
R,event,Drunken Fist,[Shangri-la] [Rybiok] [event_Get Drunk],Defensive ,0,1,0,0,0,0,0,0,Return target opponent's unit with 1 or less command cost that  adjacent to a friendly unit with 3 command cost to its owner's hand.,นำยูนิตเป้าหมายฝ่ายตรงข้ามที่มีค่า Command 1 หรือต่ำกว่าซึ่งอยู่ติดกับยูนิตฝ่ายเราที่มีค่า Command 3 กลับขึ้นมือเจ้าของ
LG,Unique event,Switching Assualt,[Shangri-la][TUT][Switch],Defensive ,0,2,0,0,0,0,0,0,Switch target friendly unit with a same command cost unit in your hand.,สลับยูนิตเป้าหมายฝ่ายเรากับยูนิตที่มีค่า Command เท่ากันในมือเรา
R,unit,Fantasia Elven Angel,[Avalon] [Spectum] [Half angle elf],Angel / Nature,1,0,2000,8000,1,1,1,1,"If this unit has 2 or more adjacent friendly units, reduce energy cost of the first event card you play each turn by E.",ถ้ามียูนิตฝ่ายเราติดกับยูนิตนี้ 2 ใบหรือมากกว่า ลดค่าใช้งานของอีเวนท์การ์ดใบแรกในแต่ละเทิร์นลง E
R,unit,Solarius Marine Corporal,[Avalon][St.Cygnus@NOAH-team][Lady Moor],Soldier / Marine,1,0,3000,8000,0,1,1,0,"Formation 3(If you have 3 or more units connected together), This unit gets + 2000 Power","Formation 3(ถ้าเรามียูนิตอยู่ติดกัน 3 ใบขึ้นไป), ยูนิตนี้ได้รับ +2000 Power"
R,unit,Blackclark's Navigator,[Avalon][Rosaria][Captain Johanna],Pirate / Specialist,1,1,3000,9000,1,1,1,0,"Depolying, if you have 2 or more other {Pirate} units in the battlefield, move target friendly unit.","Deploying, ถ้าเรามียูนิต {Pirate} ใบอื่น 2 ใบขึ้นไปในแบทเทิลฟิลด์ เคลื่อนย้ายยูนิตเป้าหมายฝ่ายเรา"
RR,unit,"Chester, The Gravekeeper",[Avalon][Saranit Klinklaykun][Exorcist],Exorcist,2,0,4000,9000,1,1,0,0,"Deploying, search you deck for a 'Blessed Stake' or 'Blessed Medallion', reveal and put it to your hand then shuffle your deck.","Deploying, หาการ์ด 'Blessed Stake' หรือ 'Blessed Medallion' 1 ใบจากกองการ์ด แสดงการ์ดใบนั้นแล้วนำขึ้นมือ จากนั้นทำการสับกองการ์ด"
R,unit,Drakos Flame Knight,[Avalon]_[Kaiser]_[St.Cygnus@NOAH-team] (1),Knight / Fire,2,0,3000,9000,1,1,1,0,This unit gets +3000 Power if you have a unit with 3 command cost in the battlefield.,ถ้าเรามียูนิตที่มีค่าคอมมานด์ 3 ในแบทเทิลฟิลด์ ยูนิตนี้ +3000 Power.
LG,Legendary unit,"Gaheris, The Shining Blade",[Avalon][DECY][Saint Garadiel],Knight,4,0,3000,15000,1,1,1,0,"All other friendly {Knight} units get +2000 Power.
When a friendly {Holy} unit enters the battlefield, this unit gains ""All other friendly units cannot be the target of opponent's event card."" until the beginning of your next turn.","ยูนิท {Knight} ใบอื่นของเราทั้งหมด +2000 Power
เมื่อยูนิท {Holy} ฝ่ายเราเข้ามาใน battlefield, ยูนิทนี้จะได้รับ ""ยูนิทใบอื่นฝ่ายเราทั้งหมดไม่เป็นเป้าหมายของการ์ดอีเวนท์ฝ่ายตรงข้าม"" จนเริ่มเทิร์นถัดไปของเรา"
LG,Legendary unit,"Sachiel , The Curator of Celestine",[ Avalon ] [St.Cygnus@NOAH-team] [ Sachiel ],Angel,4,0,3000,13000,1,1,1,1,"Deploying, choose a non-Legendary unit from your defeated zone, put it to the battlefield then put a top card of your deck to your defeated zone face down.
When this unit is defeated, flip all of your card in your defeated zone face up.","Deploying, นำยูนิตที่ไม่ใช่ Legendary ใน Defeated Zone ของเราเข้าสู่แบทเทิลฟิลด์จากนั้นนำการ์ดใบบนสุดของกองการ์ดเราวางคว่ำใน Defeated Zone ของเรา
เมื่อยูนิตนี้พ่ายแพ้ หงายหน้าการ์ดทุกใบใน Defeated Zone ของเรา"
R,event,Angelic Guidance,[Avalon][Ares][Blessing],Planning,0,2,0,0,0,0,0,0,"If you have 4 or more units in the battlefield, all friendly units get +2000 Power this turn. If you have 'Sophiel' in the battlefield, put this card to your energy zone.",ถ้าเรามียูนิต 4 ใบหรือมากกว่าใบแบทเทิลฟิลด์ ในเทิร์นนี้ยูนิตฝ่ายเราทุกตัว +2000 Power ถ้าเรามี 'Sophiel' ในแบทเทิลฟิลด์นำการ์ดใบนี้ไปยัง Energy Zone ของเรา
RR,event,Knight's Guard,[Avalon][Bloodink][PROTECTION],Defensive,0,1,0,0,0,0,0,0,Prevent 3000 damage to target unit with adjacent friendly {Soldier} or {Knight} unit this turn.,ในเทิร์นนี้ป้องกันความเสียหาย 3000 ให้กับยูนิตเป้าหมายฝ่ายเราที่อยู่ติดกับยูนิต {Knight} หรือ {Soldier} ของเรา
LG,Unique event,The Excalibur,[AVALON][Chatkaew Yodhom][Father],Planning / Ongoing,1,2,0,0,0,0,0,0,Attached unit gets +5000 Power. If you have 'Lady of the Lake' in the battlefield you can play this card without spending its cost.,ยููนิตที่ติดการ์ดใบนี้ +5000 Power ถ้าเรามี 'Lady of the Lake' อยู่ในแบทเทิลฟิลด์ เราสามารถเล่นการใบนี้ได้โดยไม่ต้องจ่ายค่าใช้งาน
RR,unit,Arcadia Secret Assassin,[lemuria][psytis][Magical sword master],Arcane / Dagger,1,0,2000,7000,0,0,0,1,"When you play an event card, this unit can attack twice this turn.",เมื่อเราใช้การ์ดอีเวนท์ ในเทิร์นนี้ยูนิตนี้สามารถโจมตีได้สองครั้ง
R,unit,Demonia Silencer,[Lemuria][megatama][Dark magic(ชั่วคราว)],Void,1,0,2000,8000,1,1,1,1,"Deploying, target unit loses all its abilities this turn.","Deploying, ในเทิร์นนี้ยูนิตเป้าหมายสูญเสียความสามารถทั้งหมด"
R,unit,Mystic Harpy Queen,[Lemuria][GoldenKwang][Harpy Queen],Beast / Nature,1,0,3000,8000,1,1,1,0,"Deploying, shuffle all cards in your retired zone to your deck.","Deploying, สับการ์ดทุกใบใน Retired Zone ของเรากลับเข้ากองการ์ดเรา"
R,unit,Everwinter Apprentice,[Lemuria][Worakit Chusanachoti][Icicle Magician],Frost,2,0,2000,10000,1,1,1,1,"When this unit attacks, deals 3000 damage to attack target with chill counter or put a chill counter on attack target.",เมื่อยูนิตนี้โจมตี ทำความเสียหาย 3000 ให้กับยูนิตที่เป็นเป้าโจมตีที่มี Chill Counter หรือ ยูนิตที่เป็นเป้าโจมตีได้รับ Chill Counter
RR,unit,Mystic Cave Dragon,[Lemuria][Kutaf-Cave Dragon][ZOOF@NOAH Team] final,Dragon / Arcane,3,0,4000,12000,1,1,1,0,"When you play an event card, this unit gets +1000 Power this turn for each energy cost spent for the event card. This ability triggers only once per turn.",เมื่ื่อเราใช้การ์ดอีเวนท์ ในเทิร์นนี้ยูนิตนี้ +1000 Power ต่อ Energy ที่เราใช้ในการเล่นอีเวนท์การ์ดใบนั้น ความสามารถเกิดขึ้นได้เทิร์นละ 1 ครั้ง
LG,Legendary unit,"Demeter, The Lifecrafter",[Lemuria][Saisuna][crimson rose],Plant,4,0,3000,14000,1,1,1,1,"You have unlimited hand size.
Casting, Draw 3 cards then put a card from your hand to your energy zone.","เรามีจำนวนการ์ดที่สามารถถือได้ตอนจบเทิร์นไม่จำกัด
Casting, จั่วการ์ด 3 ใบจากนั้นนำการ์ดในมือ 1 ใบไปยัง Energy Zone"
LG,Legendary unit,"Elisa, Princess of Cold",[ Lemuria ] [St.Cygnus@NOAH-team] [ Elisa ],Frost,4,0,5000,13000,1,1,1,0,"Casting, each opponent's unit gains a Chill counter.
When you play an event card, this unit gains ""This unit can attack any unit with Chill Counter.(no attack direction require)"" this turn.","Casting, ยูนิตฝ่ายตรงข้ามทุกใบได้รับ Chill Counter
เมื่อเราใช้การ์ดอีเวนท์ ในเทิร์นนี้ยูนิตนี้ได้รับ ""ยูนิตนี้สามารถโจมตียูนิตใดก็ได้ที่มี Chill Counter(ไม่จำเป็นต้องใช้ทิศทางการโจมตี)"""
R,event,Dragon Taming,[Lemuria][Jinx - Dragon Rider][ZOOF@NOAH Team],Planning,1,3,0,0,0,0,0,0,"Reveal the top 7 cards of your deck, choose a {Dragon} unit among them and deploy it to the battlefield then put other revealed cards to your retired zone.",แสดงการ์ดใบบนสุดของกองการ์ด 7 ใบ เลือกยูนิต {Dragon} 1 ใบจากการ์ดที่แสดงและนำยูนิตนั้นเข้ามาในสนาม จากนั้นนำการ์ดใบอื่นที่แสดงทั้งหมดลง Retired Zone.
R,event,Magic Syphon,[LEMURIA][DRAINING MANA][AMAYTIST],Defensive / Ongoing,0,1,0,0,0,0,0,0,If attached opponent's unit attack you may draw a card and put a top card of your deck to your energy zone.,ถ้ายูนิตฝ่ายตรงข้ามที่ติดการ์ดใบนี้โจมตี เราสามารถจั่วการ์ดและนำการ์ดใบบนสุดของกองการ์ดไปยัง Energy Zone
LG,Unique event,Final Ritual,[Lemuria][R o K][event- Ritual],Planning,1,3,0,0,0,0,0,0,Triggers each friendly unit's casting ability and remove this card from the game.,ความสามารถ Casting ของยูนิตฝ่ายเราทุกใบเกิดขึ้นทันทีและนำการ์ดใบนี้ออกจากเกม
R,unit,Elrich Biker,[Heisenberg][Shinywaka]-[Elrich-mobile-unit],Soldier / Gun,1,0,4000,8000,0,1,1,0,"Range Attack.
When this unit moves, this unit gets -2000 Power this turn. ","โจมตีระยะไกล
เมื่อยูนิตนี้ถูกเคลื่อนย้าย ในเทิร์นนี้ยูนิตนี้ -2000 Power"
R,unit,Angriff Infantry,[Heisenberg] [thanarat supawita] [infantry],Soldier / Gun,1,1,4000,8000,1,1,0,0,"Range Attack.
Deploying, search your deck for an 'Angriff Infantry', reveal it and put its to your hand then shuffle your deck. If you have 'Natalie' in the battlefield deploy that unit instead. Deploying effect of units do not trigger from this card's effect.","โจมตีระยะไกล
Deploying, หาการ์ด 'Angriff Infantry' 1 ใบจากกองการ์ด แสดงการ์ดใบนั้นแล้วนำขึ้นมือ จากนั้นทำการสับกองการ์ด แต่ถ้าเรามี 'Natalie' อยู่ในแบทเทิลฟิลด์ นำยูนิตที่หามาเข้าสู่แบทเทิลฟิลด์แทน ความสามารถ Deploying ของยูนิตที่มาจากความสามารถของการ์ดใบนี้จะไม่เกิดขึ้น"
RR,unit,Angriff Field Marshal,[Heisenberg][Sanaki][Field marshal Mikhailovich]‏‏‎,Soldier / Specialist,2,0,2000,9000,1,1,1,1,"Deploying(When this unit enters the battlefield), target unit with Ranged Attack gains ""This unit can attack one additional time during combat phase."" this turn.","Deploying(เมื่อยูนิตนี้เข้าสู่แบทเทิลฟิลด์), ในเทิร์นนี้ยููนิตเป้าหมายที่มีความสามารถโจมตีระยะไกล ได้รับ ""ยูนิตนี้สามารถโจมตีเพิ่มได้อีก 1 ครั้งใน Combat Phase"""
R,unit,Angriff Mobile,[Heisenberg][Shinywaka][Angriff-mobile-unit],Soldier / Gun,2,1,4000,9000,1,1,0,0,"Range Attack.
[E] Move this unit and another target friendly 'Angriff' unit. Use this ability only once per turn.","โจมตีระยะไกล
[E] เคลื่อนย้ายยูนิตนี้และยูนิต 'Angriff' เป้าหมายฝ่ายเรา ความสามารถนี้ใช้ได้เทิร์นละ 1 ครั้ง"
R,unit,Master of Explosion,[Heisenberg] [23 Times'] [The inventor of dynamite],Bomb / Engineer,2,1,2000,10000,1,1,1,1,"Deploying(When this unit enters the battlefield), this unit deals 4000 damage to target unit.","Deploying(เมื่อยูนิตนี้เข้าสู่แบทเทิลฟิลด์), ยูนิตนี้ทำความเสียหาย 4000 ให้กับยูนิตเป้าหมาย"
LG,Legendary unit,"Dr.Leah, The Death Denial",[Heisenberg] [Kaskia] [Docter Leah],Medic,4,0,3000,14000,1,1,1,1,"When another friendly unit is retired, you may deploy it to the battlefield. Deploying effect of units do not trigger from this card's effect. This ability triggers no more than twice per turn.
[C] Retired all ongoing event cards and counters in the battlefield.","เมื่อยููนิตใบอื่นฝ่ายเราถูกรีไทร์ เราสามารถนำยูนิตนั้นกลับเข้าสู่แบทเทิลฟิลด์ ความสามารถ Deploying ของยูนิตที่มาจากความสามารถของการ์ดใบนี้จะไม่เกิดขึ้น ความสามารถนี้เกิดขึ้นได้ไม่เกินเทิร์นละ 2 ครั้ง
[C] รีไทร์การ์ดอีเวนท์ Ongoing และ Counter ทั้งหมดในแบทเทิลฟิลด์"
LG,Legendary unit,"Vyner, The Unseen Death",[Heisenberg][Maximerious][Vyner],Sniper,4,0,4000,13000,1,1,1,1,"Range Attack.
At the beginning of you tun, If there is no opponent's unit adjacent to this unit, this unit gets + 2000 Power and gains ""This unit can attack any unit on the battlefield(no attack direction required)"" this turn.","โจมตีระยะไกล
เมื่อเริ่มเทิร์นของเรา ถ้าไม่มียูนิตฝ่ายตรงข้ามติดกับยูนิตนี้ ในเทิร์นนี้ยูนิตนี้ +2000 Power และได้รับ ""ยูนิตนี้สามารถโจมตียูนิตใดก็ได้ในแบทเทิลฟิลด์(ไม่จำเป็นต้องใช้ทิศทางการโจมตี)"""
RR,event,Stealth Suit,[Heisenberg][Zaiocross@NOAH][assasinate stealth mode],Planning / Ongoing,0,1,0,0,0,0,0,0,"Attached unit cannot be attacked. At the beginning of your turn, remove this card from the game.
This event cost E less to play on 'Steiger'.","ยูนิตที่ติดการ์ดใบนี้ไม่สามารถถูกโจมตีได้ เมื่อเริ่มเทิร์นของเรานำการ์ดใบนี้ออกจากเกม
การ์ดใบนี้ค่าร่ายลดลง E ถ้าติดลงบน 'Steiger'"
R,event,First Aid,[Heisenberg][TropicalSS][First aid],Defensive,0,2,0,0,0,0,0,0,Target non-{Mechanized} friendly unit gets +2000 Health this turn.,ในเทิร์นนี้ยูนิทเป้าหมายที่ไม่ใช่ {Mechanized} +2000 Health
LG,Unique event,Extermination,[Heisenberg][Laito][event-On the roof],Planning,1,3,0,0,0,0,0,0,"All friendly units with Ranged Attack gain ""This unit can attack any unit in the battlefield(no attack direction require)"" this turn.","ในเทิร์นนี้ยูนิตฝ่ายเราที่มีความสามารถโจมตีระยะไกลทั้งหมดได้รับ ""ยูนิตนี้สามารถโจมตียูนิตใดก็ได้ในแบทเทิลฟิลด์(ไม่ต้องใช้ทิศทางการโจมตี)"""
RR,event,Mana Potion,Elixir Potion [St.Cygnus@NOAH-team],Defensive,0,0,0,0,0,0,0,0,Put this card to your energy zone.,นำการ์ดใบนี้ไปยัง Energy Zone ของเรา
RR,unit,Aliya Warbird,72-Aliya Warbird-2,Hero / Soldier,1,0,3000,8000,0,1,1,0,"If you have 7 cards or more in your hand, this unit gets +2000 Power.",ถ้าเรามีการ์ดในมือ 7 ใบหรือมากกว่า ยูนิตนี้ +2000 Power
R,unit,"White Leon, The Musketeer",20-White Leon-2,Hero / Soldier,1,0,3000,8000,1,1,0,0,"If you have 'Fortune Soldier' in the Battlefield, this unit gets +2000 Power.",ถ้าเรามี 'Fortune Soldier' อยู่ในแบทเทิลฟิลด์ ยูนิตนี้ +2000 Power
R,unit,Devil Skull - Ebony,34-DS-Ebony,Villain,2,0,4000,9000,1,0,0,1,When this unit is defeated you may deploy 'Devil Skull - Ivory' from your hand to battlefield.,เมื่อยูนิตนี้พ่ายแพ้ เราสามารถนำ 'Devil Skull - Ivory' จากมือเข้าสู่แบทเทิลฟิลด์
R,unit,Devil Skull - Ivory,35-DS-Ivory,Villain,2,0,4000,9000,0,1,1,0,When this unit is defeated you may deploy 'Devil Skull - Ebony' from your hand to battlefield.,เมื่อยูนิตนี้พ่ายแพ้ เราสามารถนำ 'Devil Skull - Ebony' จากมือเข้าสู่แบทเทิลฟิลด์
RR,unit,Raging Fury Fist,57-Fury fist-4,Hero / Soldier,3,0,7000,12000,1,0,0,0,"If this unit is in the battlefield, this unit gets -2000 Power.",ถ้ายูนิตนี้อยู่ในแบทเทิลฟิลด์ ยูนิตนี้ -2000 Power
R,unit,"Lieutenant Commander, Breaker G ",65-Breaker G -4,Hero,3,0,5000,12000,0,1,1,0,[Discard a 'Breaker G' card] Move this unit.,[ทิ้งการ์ด 'Breaker G' 1 ใบ] เคลื่อนย้ายยูนิตนี้
LG,Legendary unit,"Shining Star, Light in the Darkness",58-Shining Star -4,Hero,4,0,5000,14000,1,1,0,0,"[E] This unit gets +1000 Power and gains ranged attack this turn.
If this unit has 7000 Power or more, this unit gains ""This unit can attack any unit in the battlefield(no attack direction required)"".","[E] ยูนิตนี้ +1000 Power และได้รับโจมตีระยะไกลในเทิร์นนี้
ถ้ายูนิตนี้มีค่า Power 7000 หรือมากกว่า ยูนิตนี้ได้รับ ""ยูนิตนี้สามารถโจมตียูนิตใดก็ได้ในแบทเทิลฟิลด์(ไม่ต้องใช้ทิศทางการโจมตี)"""
R,event,Weapon : Heat Bullet SMG,E-13-DS-Heat bullet SMG,Planning / Ongoing,1,0,0,0,0,0,0,0,"Attached unit gets +1000 Power, gains ranged attack and cannot be attached by other 'Weapon' event card.","ยูนิตที่ติดการ์ดใบนี้ +1000 Power และได้รับโจมตีระยะไกล
ยูนิตที่ติดการ์ดใบนี้ ไม่สามารถติดการ์ดอีเวนท์ 'Weapon' ใบอื่นได้"
R,event,Air Strike,E-18-Air Strike,Defensive,0,0,0,0,0,0,0,0,"As an additional cost to play this card you must discard a card. If target opponent's unit attacks this turn, at the beginning of your next turn, deal damage to that unit equal to the power of the discarded card.","ทิ้งการ์ดในมือ 1 ใบเพื่อเป็นค่าใช้การ์ดใบนี้เพิ่มเติม
ถ้ายููนิตเป้าหมายฝ่ายตรงข้ามโจมตีในเทิร์นนี้ เมื่อเริ่มเทิร์นถัดไปของเรา ทำความเสียหายเท่ากับค่า Power ของการ์ดที่ทิ้ง ให้กับยูนิตนั้น"
R,event,Shining Beam,E-23-Shining beam,Planning,0,1,0,0,0,0,0,0,"Target unit gains ranged attack this turn, if the target already has ranged attack it gets +2000 Power this turn instead.",ในเทิร์นนี้ ยูนิตเป้าหมายได้รับโจมตีระยะไกล ถ้ายูนิตเป้าหมายมีโจมตีระยะไกลอยู่แล้ว จะได้รับ +2000 Power แทน