Illus,Shangri-la,Rarity,Quantity,Card Name,Picture Link,Trait,Command,Energy,Power,Health,direction_f,direction_l,direction_r,direction_b,text_en,text_th
Prema-Ja,1,,2,Acheron Copse Wizard,[Lemuria][Prema-Ja][undead wizard],Undead,1,0,3000,8000,1,1,1,0,"Deploying, put up to 2 unit cards from your retired zone to your energy zone.","Deploying, นำการ์ดยูนิตไม่เกิน 2 ใบใน Retired Zone ของเราไปยัง Energy Zone"
Zhowee,2,,2,Acheron Dark Flare,[Lemuria][Zhowee][Shadow mage],Warlock,1,0,2000,8000,1,1,1,1,"Deploying, put top 3 cards of your deck to retired zone then put the top card of your deck to your energy zone.","Deploying, นำการ์ด 3 ใบบนสุดของกองการ์ดไปยัง Retired Zone จากนั้น นำการ์ดใบบนสุดของกองการ์ดไปยัง Energy Zone"
Paeng Thitaya,3,Reprint,4,Candy Succubus,59. [Lemuria][Paeng Thitaya][Candy Succubus],Demon / Candy,1,0,3000,7000,1,1,0,0,[Remove from the game 2 event cards from your retired zone] This unit gets +2000 Power. Use this ability only once per turn.,[นำการ์ดอีเวนท์ 2 ใบจาก Retired zone ออกจากเกม] ในเทิร์นนี้ยูนิตนี้ +2000 Power ความสามารถนี้ ใช้ได้เทิร์นละ 1 ครั้ง
Nicca,4,Reprint,4,Demonia Dark Blade,60 Demonia Dark Blade,Void / Dagger,1,0,3000,6000,0,0,0,1,[E] This unit gets +2000 Power this turn. Use this ability only once per turn.,[E] ในเทิร์นนี้ยูนิตนี้ +2000 Power ความสามารถนี้ใช้ได้เทิร์นละ 1 ครั้ง
Ronfaure,5,,4,Acheron Berserker,[Lemuria][Ronfaure][Undead Baron],Undead,2,0,5000,10000,1,1,0,0,"At the beginning of your turn, remove a unit card from your retire zone or retire this unit.",เมื่อเริ่มเทิร์นของเรา นำการ์ดยูนิต 1 ใบใน Retired Zone ออกจากเกม หรือ รีไทร์ยูนิตนี้
Narukkod,6,Foil,2,"Lyra, The Blood Reaper",[Lemuria][Narukkod][Gothic Vampire],Vampire,2,0,4000,9000,1,1,1,0,"[E] This unit gets +1000 Power and gain ""Spoil, put the top 2 cards of your deck to your energy zone."" this turn. Use this ability only once per turn.","[E] ในเทิร์นนี้ยูนิตนี้ +1000 Power และได้รับ ""Spoil, นำการ์ดใบบนสุด 2 ใบของกองการ์ดเราไปยัง Energy Zone"" ความสามารถนี้ใช้ได้ไม่เกินเทิร์นละ 1 ครั้ง"
Ep,7,Reprint,4,Demonia Red Hornet,65. [Lemuria][Ep][red hornet],Demon / Sword,2,0,4000,10000,1,1,0,0,"When you play an event card, this unit gains all attack direction this turn.",เมื่อเราใช้การ์ดอีเวนท์ ยูนิตนี้ได้รับทิศทางการโจมตีทุกทิศทาง
Sunkeytail,8,Foil,1,"Eleanor, The Blood Thirst",[Lemuria][Sunkeytail][Gabriella the Blood-Thirst],Vampire / Warlock,3,0,5000,11000,1,1,1,0,"Spoil(If this unit defeats an opponent's unit), this unit gets +4000 Health until the beginning of your next turn.","Spoil, ยูนิตนี้ได้รับ +4000 Health จนถึงเริ่มเทิร์นถัดไปของเรา"
Yosanann Rujichayakhun,9,Reprint,4,Zombie Dragon,[Lemuria][Yosanann Rujichayakhun][dragon_zombie],Undead / Dragon,3,0,5000,12000,1,1,1,1,"This unit cannot be moved, unless you have a {Warlock} unit in the battlefield.",ยููนิตนี้ไม่สามารถเคลื่อนย้ายได้ถ้าเราไม่มียูนิต {Warlock} ในแบทเทิลฟิลด์
Babepig,10,,4,Blood Awakening,[Lemuria][Babepig][Awakening],Planning,1,1,0,0,0,0,0,0,"Reveal top 4 cards of your deck, choose a unit among them and deploy it to the battlefield, then put the rest to your retired zone. Retire the deployed unit at the beginning of your next turn.","แสดงการ์ด 4 ใบบนสุดของกองการ์ด เลือกยูนิต 1 ใบจากในนั้นและนำเข้าสู่แบทเทิลฟิลด์ จากนั้นนำการ์ดที่เหลือไปยัง Retired Zone
เมื่อเริ่มเทิร์นถัดไปของเรา รีไทร์ยูนิตที่นำเข้าสู่แบทเทิลฟิลด์โดยการ์ดนี้"
Zhowee,11,,4,Soul Fire,[Lemuria][Zhowee][Event-Shadow mage],Planning,1,0,0,0,0,0,0,0,"As additional cost to play this card, remove 3 unit cards from your retired zone from game. Deal 3000 damage to target unit.",นำการ์ดยูนิต 3 ใบใน Retired Zone ออกจากเกมเพื่อเป็นค่าใช้การ์ดใบนี้เพิ่มเติม ทำความเสียหาย 3000 ให้กับยูนิตเป้าหมาย
Megatama,12,,4,Mist of Exhaustion,[Lemuria][megatama][คำสาป],Planning / Ongoing,0,1,0,0,0,0,0,0,"Attached unit gets -5000 Power, At the beginning of your turn retire this card.","ยูนิตที่ติดการ์ดใบนี้ -5000 Power, เมื่อเริ่มเทิร์นของเรา รีไทร์การ์ดใบนี้"
St.Cygnus@NOAH-team,13,,4,Curse: Silence,[Lemuria][St.Cygnus@NOAH-team][Event Silence],Planning / Ongoing,0,2,0,0,0,0,0,0,Attached unit loses all abilities.,ยูนิตที่ติดการ์ดใบนี้ สูญเสียความสามารถทั้งหมด
TropicalSS,14,Foil,2,Curse: Sleep,[lemuria][TropicalSS][Sleep],Defensive,0,2,0,0,0,0,0,0,Target unit with command cost 1 or less cannot attack this turn.,ยูนิตเป้าหมายที่มีค่า Command 1 หรือต่ำกว่า ไม่สามารถโจมตีได้ในเทิร์นนี้
ZOOF@NOAH Team,15,Reprint,4,Soul Drain,78. [Lemuria][Hera][ZOOF@NOAH Team] final,Defensive,0,3,0,0,0,0,0,0,"Attached non-legendary unit gains ""At the beginning of your combat phase, discard a card or retire this unit.""","ยููนิตที่ไม่ใช่ Legendary ที่ติดการ์ดใบนี้ ได้รับ ""เมื่อเข้าสู้ Combat phase ของเราทิ้งการ์ดในมือ 1 ใบหรือรีไทร์ยูนิตนี้"""
Maximerious,16,Foil,1,"Wendrake, The Dark Conjuror",[Lemuria][Maximerious][DarkConjuror],Warlock,4,0,3000,14000,1,1,1,0,"Deploying, reveal top 4 cards of your deck, choose a non-legendary unit among them and deploy it to the battlefield, then put the rest to your retired zone.
If you have no cards in your deck, this unit gets +7000 Power.","Deploying, แสดงการ์ด 4 ใบบนสุดของกองการ์ด เลือกยูนิต 1 ใบที่ไม่ใช่ Legendary จากในนั้นและนำเข้าสู่แบทเทิลฟิลด์ จากนั้นนำการ์ดที่เหลือไปยัง Retired Zone
ถ้ากองการ์ดของเราไม่มีการ์ดอยู่ ยูนิตนี้ +7000 Power"