Illus,Shangri-la,Rarity,Quantity,Card Name,Picture Link,Trait,Command,Energy,Power,Health,direction_f,direction_l,direction_r,direction_b,text_en,text_th
Zunaki,1,,4,Phantom Assassin,[Shangri-la][Zunaki][Male ninja],Ninja,1,0,4000,7000,0,0,0,1,Exclude this unit from the effect that counts number of units in the battlefield.,ความสามารถที่นับจำนวนยูนิตในแบทเทิลฟิลด์ นับโดยไม่รวมยูนิตนี้
t.Cygnus@NOAH-team,2,,4,Suriya Blader,[Shangri-la] [Chan] [St.Cygnus@NOAH-team],Soldier /Sword,1,0,3000,8000,1,1,0,0,"If an opponent has equal or more units than you in the battlefield, this unit gets +2000 Power.",ถ้าผู้เล่นฝ่ายตรงข้ามมียูนิตมากกว่าหรือเท่ากับเราในแบทเทิลฟิลด์ ยูนิตนี้ +2000 Power
St.Cygnus@NOAH-team,3,,4,Suriya Fighter,[Shangri-la] [ In ] [St.Cygnus@NOAH-team],Soldier / Martial Art,1,0,4000,8000,1,0,0,0,"If an opponent has equal or more units than you in the battlefield, this unit gains all attack direction.",ถ้าผู้เล่นฝ่ายตรงข้ามมียูนิตมากกว่าหรือเท่ากับเราในแบทเบิลฟิลด์ ยูนิตนี้ได้รับทิศการโจมตีทุกทิศทาง
ZOOF@NOAH Team,4,,2,"Wayuphak, Wind Garuda",[Shangri-la][WAYUPHAK][ZOOF@NOAH Team],Beast / Nature,1,1,3000,9000,1,1,1,0,"When this card is discarded, you may pay C to deploy this card to the battlefield from your retired zone.",เมื่อการ์ดใบนี้ถูกทิ้งจากมือ เราสามารถจ่าย C เพื่อนำการ์ดใบนี้เข้าสู่แบทเทิลฟิลด์จาก Retired Zone ของเราได้
Nutchapol Thi.,5,Reprint,4,Ancient Worm of Deep Forest,[Shangri-la][Nutchapol Thi.][Death Worm],Insect,2,0,3000,9000,1,1,1,0,"Spoil(If this unit defeats an opponent's unit), you may retire this unit to turn defeated unit facedown.","Spoil, (เมื่อยูนิตนี้สามารถส่งยูนิตของฝ่ายตรงข้ามลง Defeated Zone ได้), เราสามารถ Retire ยูนิตนี้เพื่อคว่ำหน้ายูนิตที่พ่ายแพ้ได้"
St.Cygnus@NOAH-team,6,,4,Hunter of Deep Forest,[Shangri-la01]_[Mihorara]_[St.Cygnus@NOAH-team],Hunter,2,0,4000,9000,0,0,0,0,[Discard a card] Move this unit and this unit gets +1000 Power this turn. Use this ability only once per turn.,"[ทิ้งการ์ดในมือ 1 ใบ] เคลื่อนย้ายยูนิตนี้ และ ในเทิร์นนี้ยูนิตนี้ +1000 Power,  ความสามารถนี้ใช้ได้เทิร์นละ 1 ครั้ง"
t.Cygnus@NOAH-team,7,Foil,1,Seven-Tailed of Twilight,[Shangri-la] [ Seven Tail Kasalong ] [St.Cygnus@NOAH-team],Demon / Fox,2,0,4000,9000,0,1,1,0,"When your opponent plays a defensive event, search you deck for a unit card reveal and put it to your hand then shuffle your deck.",เมื่อผู้เล่นฝ่ายตรงข้ามใช้ Defensive Event หาการ์ดยูนิตจากกองการ์ดของเรา 1 ใบ แสดงการ์ดนั้นแล้วนำขึ้นมือ จากนั้นทำการสับกองการ์ด
ZOOF@NOAH Team,8,Foil,2,"Hanuman, The Unstoppable",[Shangri-la][Hanuman][ZOOF@NOAH Team] final.psd,Divine / Beast,3,0,5000,10000,1,1,1,0,"When this card enters defeated zone from the battlefield, you may put a card from your hand to defeated zone facedown to return this card to the battlefield in its previous position.",เมื่อการ์ดนี้เข้าสู่ Defeated Zone เราสามารถเลือกการ์ดในมือ 1 ใบวางลงบน Defeated Zone แบบคว่ำ จากนั้น นำการ์ดใบนี้กลับสู่แบทเทิลฟิลด์ในช่องเดิม
t.Cygnus@NOAH-team,9,Foil,2,"Lakshmana, The Harbinger",[Shangri-la] [ Avatar-Pralak ] [St.Cygnus@NOAH-team],Divine / Royal,3,0,5000,9000,1,1,1,0,"When this unit is defeated, you may deploy 'Hanuman' from your hand to the battlefield.",เมื่อยูนิตนี้พ่ายแพ้ เราสามารถนำ 'Hanuman' จากมือเข้าสู่แบทเทิลฟิลด์
ZOOF@NOAH Team,10,,4,Suriya Kick,Event 5 [Shangri-la][Sakkarin][ZOOF@NOAH Team] final,Planning,1,0,0,0,0,0,0,0,Target friendly unit without Ranged attack gets +1000 Power this turn for each of its attack direction.,ยููนิตเป้าหมายฝ่ายเราที่ไม่มีความสามารถโจมตีระยะไกล ในเทิร์นนี้ได้รับ +1000 Power ต่อจำนวนทิศทางการโจมตีของยูนิตนั้น
ZOOF@NOAH Team,11,Reprint,4,Illusionary Mist,Event 2 Illusionary Mist, Planning / Ongoing,0,1,0,0,0,0,0,0,"At the beginning of defending phase, choose a direction of attached unit, chosen direction cannot be attacked. At the beginning of your turn, retire all ongoing event cards on attached unit.","เมื่อเข้า Defending phase เราสามารถเลือกทิศทาง, ยูนิตที่ติดการ์ดใบนี้จะไม่สามารถถูกโจมตีจากทิศทางนั้น. รีไทร์การ์ดใบนี้และEventอื่นๆบนยูนิตนี้ออกตอนเริ่มเทิร์นของเรา"
Foog,12,Reprint,2,Berserk Armor,Event 3 Berserk Armor,Planning/Ongoing,1,2,0,0,0,0,0,0,Attached unit gets +2000 Power for each adjacent opponent's unit.,ยูนิตที่ติดการ์ดใบนี้ +2000 Power ต่อจำนวนยูนิตฝ่ายตรงข้ามที่อยู่ติดกับยูนิตนี้
Maximerious,13,Reprint,4,Swordsmanship Training,Event 4 Sword Training,Planning/Ongoing,0,1,0,0,0,0,0,0,"At the beginning of your turn, attached unit gets +2000 Power this turn.
Attached unit cannot be attached by other 'Training' event card.","เมื่อเริ่มเทิร์นของเรา ในเทิร์นนี้ ยูนิตที่ติดการ์ดใบนี้ +2000 Power
ยูนิตที่ติดการ์ดใบนี้ไม่สามารถติดการ์ด 'Training' ใบอื่นได้"
TropicalSS,14,,4,Deflecting Stance,[Shangri-la][TropicalSS][deflect attack],Defensive,0,2,0,0,0,0,0,0,Target a friendly unit with 3 or more adjacent opponent's units. Prevent all damage from the first attack to that unit this turn.,เลือกยูนิตเป้าหมายฝ่ายเรา ที่มียูนิตฝ่ายตรงข้ามอยู่ติดกับยูนิตนั้น 3 ยูนิตขึ้นไป ในเทิร์นนี้ป้องกันความเสียหายทั้งหมดจากการโจมตีครั้งแรกให้กับยูนิตนั้น
Maximerious,15,Reprint,4,Revenge,Event 1 [Shangri-la][Maximerious][Revenge],Defensive,0,1,0,0,0,0,0,0,"If target friendly unit is defeated this turn, at the beginning of your next turn, all friendly unit gets +2000 Power until end of turn.",เมื่อยูนิตเป้าหมายพ่ายแพ้ในเทิร์นนี้ เมื่อเริ่มต้นเทิร์นถัดไปของเรา ยูนิตฝ่ายเราทั้งหมดได้รับ +2000 Power จนจบเทิร์น
t.Cygnus@NOAH-team,16,Foil,1,"Rama, The Peacekeeper",Legendary [Shangri-la] [ Avatar-Praram ] [St.Cygnus@NOAH-team],Divine,4,0,4000,14000,1,1,0,0,"Ranged Attack.
Deploying, this unit gains ""Spoil, put the top card of target opponent's deck to defeated zone."" this turn.","โจมตีระยะไกล
Deploying, ในเทิร์นนี้ ยูนิตนี้ได้รับ ""Spoil, นำการ์ดใบบนสุดของกองการ์ดฝ่ายตรงข้ามไปยัง Defeated Zone"""