faction,set_id,illust,rarity,type,is_legendary,is_planning,is_ongoing,is_defensive,name,image,trait,command,energy,power,health,direction_f,direction_l,direction_r,direction_b,text_en,text_th
Shangri-la,104,St.Cygnus@NOAH-team,C,unit,0,0,0,0,"Rak, Twin Spirit","https://static.wixstatic.com/media/410169_c73b79f8c6884cfcae6c7575e6cf3e87~mv2.jpg/v1/fill/w_605,h_845,al_c,q_90,usm_0.66_1.00_0.01/410169_c73b79f8c6884cfcae6c7575e6cf3e87~mv2.jpg",Spirit,1,0,3000,8000,1,1,1,0,"At the beginning of your turn, you may return this unit and 'Yom' in the battlefield to your hand to deploy unit with 3 command cost from your hand to the battlefield.",เมื่อเริ่มเทิร์นของเรา เราสามารถนำยูนิตนี้และยูนิต 'Yom' ในแบทเทิลฟิลด์กลับขึ้นมือเพื่อนำยูนิตที่มีค่า Command 3 จากมือเข้าสู่แบทเทิลฟิลด์
Shangri-la,104,St.Cygnus@NOAH-team,RR,unit,0,0,0,0,"Seeda, Princess of Suriya","https://static.wixstatic.com/media/410169_63450b7034f34d2186019ac95787aa07~mv2.jpg/v1/fill/w_605,h_845,al_c,q_90,usm_0.66_1.00_0.01/410169_63450b7034f34d2186019ac95787aa07~mv2.jpg",Royal,1,0,2000,8000,1,1,1,1,"Deploying, move another target friendly unit with 3 command cost or higher and that unit gets +2000 Power this turn.","Deploying, เคลื่อนย้ายยูนิตเป้าหมายฝ่ายเราที่มีค่า Command 3 หรือมากกว่าและในเทิร์นนี้ยูนิตนั้นได้รับ +2000 Power"
Shangri-la,104,Diezonezero@NOAH Team,C,unit,0,0,0,0,Lady of Tani,"https://static.wixstatic.com/media/410169_cdb6d81d5bde48d498eff988052a6c75~mv2.jpg/v1/fill/w_605,h_845,al_c,q_90,usm_0.66_1.00_0.01/410169_cdb6d81d5bde48d498eff988052a6c75~mv2.jpg",Spirit / Plant,1,0,2000,8000,1,1,1,0,"When you reinforce, another target friendly unit gets +1000 Power this turn.",เมื่อเราทำการเสริมกำลัง ในเทิร์นนี้ยูนิตเป้าหมายใบอื่นฝ่ายเราได้รับ +1000 Power
Shangri-la,104,ZOOF@NOAH Team,C,unit,0,0,0,0,Suriya Marsh Abductor,"https://static.wixstatic.com/media/410169_c66911f6332c40dd9a4f9d6de11a68d2~mv2.jpg/v1/fill/w_605,h_845,al_c,q_90,usm_0.66_1.00_0.01/410169_c66911f6332c40dd9a4f9d6de11a68d2~mv2.jpg",Demon / Beast,1,0,4000,8000,1,0,0,1,"At the beginning of your turn, if you have no {Hunter} unit in the battlefield, discard a card.",เมื่อเริ่มเทิร์นของเราถ้าเราไม่มียูนิต {Hunter} ในแบทเทิลฟิลด์ทิ้งการ์ดบนมือ 1 ใบ
Shangri-la,104,St.Cygnus@NOAH-team,C,unit,0,0,0,0,"Yom, Twin Spirit","https://static.wixstatic.com/media/410169_88c2c4c060c24b0e900e6a60875a60c3~mv2.jpg/v1/fill/w_605,h_845,al_c,q_90,usm_0.66_1.00_0.01/410169_88c2c4c060c24b0e900e6a60875a60c3~mv2.jpg",Spirit,1,0,3000,8000,1,1,1,0,"Deploying, all friendly 'Rak' and 'Yom' units in the battlefiled get +2000 Health until the beginning of your next turn.","Deploying, ยูนิต 'Rak' และยูนิต 'Yom' ฝ่ายเราทั้งหมดในแบทเทิลฟิลด์ได้รับ +2000 Health จนเริ่มเทิร์นถัดไปของเรา"
Shangri-la,104,St.Cygnus@NOAH-team,R,unit,0,0,0,0,Royal Ceremonial Manager,"https://static.wixstatic.com/media/410169_1f08eb51fd924769ad99dfa2fbe4e7e2~mv2.jpg/v1/fill/w_605,h_845,al_c,q_90,usm_0.66_1.00_0.01/410169_1f08eb51fd924769ad99dfa2fbe4e7e2~mv2.jpg",Royal / Specialist,1,1,3000,9000,1,1,1,1,"Deploying, your opponent cannot play planning event card until the beginning of your next turn.","Deploying(เมื่อยูนิตนี้เข้าสู่แบทเทิลฟิลด์), ผู้เล่นฝ่ายตรงข้ามไม่สามารถเล่น Planning Evnet ได้จนเริ่มเทิร์นถัดไปของเรา"
Shangri-la,104,Zaiocross@NOAHteam,C,unit,0,0,0,0,Hungering Ghost,"https://static.wixstatic.com/media/410169_cde124ad7db54d7b8481c15c5fe9c1f1~mv2.jpg/v1/fill/w_605,h_845,al_c,q_90,usm_0.66_1.00_0.01/410169_cde124ad7db54d7b8481c15c5fe9c1f1~mv2.jpg",Spirit / Demon,2,0,4000,9000,1,1,0,0,"When your opponent reinforce, draw a card. This ability triggers only once per turn.",เมื่อผู้เล่นฝ่ายตรงข้ามทำการเสริมกำลัง จั่วการ์ด 1 ใบ ความสามารถนี้เกิดได้ไม่เกินเทิร์นละครั้ง
Shangri-la,104,ZOOF@NOAH Team,R,unit,0,0,0,0,"Kraithong, The River Hunter","https://static.wixstatic.com/media/410169_3e150a41a19d4989a8192dfb93262d3f~mv2.jpg/v1/fill/w_605,h_845,al_c,q_90,usm_0.66_1.00_0.01/410169_3e150a41a19d4989a8192dfb93262d3f~mv2.jpg",Hunter,2,0,5000,8000,1,1,1,0,"Deploying, If an opponent has equal or more units than yours in the battlefield, you may search your deck for a 'Water Shield' and attach to this unit then shuffle your deck.","Deploying, ถ้าผู้เล่นฝ่ายตรงข้ามมียูนิตมากกว่าหรือเท่ากับเราในแบทเทิลฟิลด์ หา 'Water Sheild' 1 ใบจากกองการ์ดเรา ติดลงบนยูนิตนี้แล้วสับกองการ์ด"
Shangri-la,104,St.Cygnus@NOAH-team,R,unit,0,0,0,0,Suriya Sea Monarch,"https://static.wixstatic.com/media/410169_0d521bdad4ff47d38447bb65390a5d5b~mv2.jpg/v1/fill/w_605,h_845,al_c,q_90,usm_0.66_1.00_0.01/410169_0d521bdad4ff47d38447bb65390a5d5b~mv2.jpg",Demon / Beast,2,0,4000,9000,1,1,1,0,"Spoil, you may switch this unit with 'Suriya Naga King' in your hand.","Spoil(เมื่อยูนิตนี้ทำให้ยูนิตฝ่ายตรงข้ามพ่ายแพ้), เราสามารถสลับยูนิตนี้กับ 'Suriya Naga King' ในมือของเราได้"
Shangri-la,104,St.Cygnus@NOAH-team,C,unit,0,0,0,0,Suriya Sky Monarch,"https://static.wixstatic.com/media/410169_a05fd6974d57442fbf26d45b7f7ab00b~mv2.jpg/v1/fill/w_605,h_845,al_c,q_90,usm_0.66_1.00_0.01/410169_a05fd6974d57442fbf26d45b7f7ab00b~mv2.jpg",Demon / Beast,2,0,3000,10000,1,1,1,1,"When another friendly unit is defeated, you may switch this unit with 'Suriya Garuda King' from your hand.",เมื่อยูนิตอื่นของเราพ่ายแพ้ เราสามารถสลับยูนิตนี้กับ 'Suriya Garuda King' ในมือของเราได้
Shangri-la,104,St.Cygnus@NOAH-team,C,unit,0,0,0,0,Suriya Garuda King,"https://static.wixstatic.com/media/410169_354b4d7b16b84694b1d06d5ffcde7c6b~mv2.jpg/v1/fill/w_605,h_845,al_c,q_90,usm_0.66_1.00_0.01/410169_354b4d7b16b84694b1d06d5ffcde7c6b~mv2.jpg",Demon / Beast,3,0,5000,11000,1,1,1,0,"Deploying(When this unit enters the battlefield), move another target friendly unit.","Deploying(เมื่อยูนิตนี้เข้าสู่แบทเทิลฟิลด์), เคลื่อนย้ายยูนิตเป้าหมายใบอื่นฝ่ายเรา"
Shangri-la,104,St.Cygnus@NOAH-team,RR,unit,0,0,0,0,Suriya Naga King,"https://static.wixstatic.com/media/410169_8af07480dd0e4d43b62c269a9e76b753~mv2.jpg/v1/fill/w_605,h_845,al_c,q_90,usm_0.66_1.00_0.01/410169_8af07480dd0e4d43b62c269a9e76b753~mv2.jpg",Demon / Beast,3,0,4000,12000,1,1,1,1,"Deploying, If an opponent has equal or more units than yours in the battlefield, you may discard a card to retired target unit with 1 command or less.","Deploying, ถ้าผู้เล่นฝ่ายตรงข้ามมียูนิตมากกว่าหรือเท่ากับเราในแบทเทิลฟิลด์ เราสามารถทิ้งการ์ดบนมือ 1 ใบเพื่อรีไทร์ยูนิตเป้าหมายฝ่ายตรงข้ามที่มีค่า Command 1 หรือต่ำกว่า"
Shangri-la,104,JAOW@NOAH team,R,unit,0,0,0,0,"Totsakan, The Demon King","https://static.wixstatic.com/media/410169_6479a9d240b94ec8919cd84c69f70537~mv2.jpg/v1/fill/w_605,h_845,al_c,q_90,usm_0.66_1.00_0.01/410169_6479a9d240b94ec8919cd84c69f70537~mv2.jpg",Royal / Demon,3,0,2000,12000,1,1,1,0,"When you discard a card, this unit can attack one additional time this turn.",เมื่อเราทำการทิ้งการ์ดจากมือ ในเทิร์นนี้ยูนิตนี้จะสามารถโจมตีเพิ่มได้อีก 1 ครั้ง
Shangri-la,104,Saisuna,LG,unit,1,0,0,0,"Chantra, Master of All Spirits","https://static.wixstatic.com/media/410169_33ed21fb6ea04bd89c5c9aacd2591d5c~mv2.jpg/v1/fill/w_605,h_845,al_c,q_90,usm_0.66_1.00_0.01/410169_33ed21fb6ea04bd89c5c9aacd2591d5c~mv2.jpg",Oracle,4,0,5000,13000,1,1,1,0,"When you reinforce, move this unit and this unit gains ranged attack this turn.
Your opponent can play planning event only once per turn.","เมื่อเราทำการเสริมกำลัง เคลื่อนย้ายยูนิตนี้และในเทิร์นนี้ยูนิตนี้ได้รับความสามารถโจมตีระยะไกล
ผูู้เล่นฝ่ายตรงข้ามสามารถเล่น Planning Event ได้เทิร์นละ 1 ใบ"
Shangri-la,104,Natcharat Duangkaew,LG,unit,1,0,0,0,"Lord Shiva, the Destruction's Herald","https://static.wixstatic.com/media/410169_27923cd4b60f48f783b48bdec25cac4b~mv2.jpg/v1/fill/w_605,h_845,al_c,q_90,usm_0.66_1.00_0.01/410169_27923cd4b60f48f783b48bdec25cac4b~mv2.jpg",Divine,4,1,3000,14000,1,1,1,0,"When you play this unit, you may turn a face down card in your opponent's defeated zone face up to retire all non-Legendary units in the battlefield.
When this unit is defeated, shuffle this unit in to your deck then put a top card of your deck to your defeated zone.","เมื่อเราเล่นการ์ดใบนี้, เราสามารถหงายหน้าการ์ด 1 ใบใน Defeated Zone ของฝ่ายตรงข้ามเพื่อรีไทร์ยูนิตที่ไม่ใช่ Legendary ทั้งหมดในแบทเทิลฟิลด์
เมื่อยูนิตนี้พ่ายแพ้ สับยูนิตนี้เข้ากองการ์ดเราแล้วนำการ์ดใบบนสุดของกองการ์ดวางใน Defeated Zone ของเรา"
Shangri-la,104,DECY,C,event,0,1,0,0,Backstab,"https://static.wixstatic.com/media/410169_ba63afc9e0eb4d50ad41ab39491d197f~mv2.jpg/v1/fill/w_605,h_845,al_c,q_90,usm_0.66_1.00_0.01/410169_ba63afc9e0eb4d50ad41ab39491d197f~mv2.jpg",Planning,0,1,0,0,0,0,0,0,"Draw a card then move target friendly unit to a back position of target opponent's unit. 
When this card is discarded, you may pay the cost to play this card.","จั่วการ์ด 1 ใบ จากนั้นเคลื่อนย้ายยูนิตเป้าหมายฝ่ายเราไปด้านหลังของยูนิตเป้าหมายฝ่ายตรงข้าม
เมื่อการ์ดใบนี้ถูกทิ้งจากมือ เราสามารถจ่ายค่าใช้งานเพื่อเล่นการ์ดใบนี้ได้"
Shangri-la,104,DECY@Noah Team,C,event,0,1,0,0,Soul of the Beast,"https://static.wixstatic.com/media/410169_aeae063166e84dc78286dac9cdb4b1d1~mv2.jpg/v1/fill/w_605,h_845,al_c,q_90,usm_0.66_1.00_0.01/410169_aeae063166e84dc78286dac9cdb4b1d1~mv2.jpg",Planning,1,1,0,0,0,0,0,0,Target non-{Beast} friendly unit gets bonus Power equal to your {Beast} unit in the battlefield with highest power.,ยูนิตเป้าหมายฝ่ายเราที่ไม่ใช่ {Beast} ได้รับ Power เพิ่มขึ้นเท่ากับยูนิต {Beast} ฝ่ายเราในแบทเทิลฟิลด์ที่มีพลังโจมตีสูงสุด
Shangri-la,104,ZOOF@NOAH Team,R,event,0,1,1,0,Water Shield,"https://static.wixstatic.com/media/410169_8c7f26961f454528b7b75f7c21bb6411~mv2.jpg/v1/fill/w_605,h_845,al_c,q_90,usm_0.66_1.00_0.01/410169_8c7f26961f454528b7b75f7c21bb6411~mv2.jpg",Planning / Ongoing,0,1,0,0,0,0,0,0,"At the beginning of your defending phase, you may retire this card to prevent 2000 damage to the attached unit this turn.",เมื่อเริ่ม Defending Phase ของเรา เราสามารถรีไทร์การ์ดใบนี้เพื่อป้องกันความเสียหาย 2000 ในเทิร์นนี้ให้กับยูนิตที่ติดการ์ดใบนี้
Shangri-la,104,Worakit Chusanachoti,C,event,0,0,0,1,Jump Escape,"https://static.wixstatic.com/media/410169_fc6ebafa70034845bacc73007e809215~mv2.jpg/v1/fill/w_605,h_845,al_c,q_90,usm_0.66_1.00_0.01/410169_fc6ebafa70034845bacc73007e809215~mv2.jpg",Defensive,0,2,0,0,0,0,0,0,Move target friendly unit to the back position.,เคลื่อนย้ายยูนิตเป้าหมายฝ่ายเราไปช่องด้านหลัง
Shangri-la,104,Decy@Noah Team,R,event,0,0,0,1,Vengeful Assault,"https://static.wixstatic.com/media/410169_530376e5580b4efdb4d3ad6b58dbccf8~mv2.jpg/v1/fill/w_605,h_845,al_c,q_90,usm_0.66_1.00_0.01/410169_530376e5580b4efdb4d3ad6b58dbccf8~mv2.jpg",Defensive,0,2,0,0,0,0,0,0,"If a friendly unit is defeated this turn, at the beginning of your next turn target friendly unit gets +6000 Power this turn.",ถ้ายูนิตฝ่ายเราพ่ายแพ้ในเทิร์นนี้ เมื่อเริ่มเทิร์นของเรายูนิตเป้าหมายจะได้รับ +6000 Power ในเทิร์นนี้