faction,set_id,illust,rarity,type,name,image,trait,is_legendary,is_range,is_planning,is_ongoing,is_defensive,command,energy,power,health,direction_f,direction_l,direction_r,direction_b,text_en,text_th
Brave Kingdom,104,Garayann,C,unit,Battling Green Virtue,60-Green virtue-4,Hero / Soldier,0,1,0,0,0,1,0,2000,8000,1,1,0,0,"Ranged Attack.
If this unit has no adjacent opponent's unit, this unit gets +2000 Power.","โจมตีระยะไกล
ถ้าไม่มียูนิตฝ่ายตรงข้ามติดกับยูนิตนี้ ยูนิตนี้ได้รับ +2000 Power"
Brave Kingdom,104,Garayann,R,unit,Devil Skull Infantry,36-DS-Infantry,Villain,0,1,0,0,0,1,0,3000,7000,1,1,0,0,"Ranged Attack.
Deploying, search your deck for a 'Devil Skull - Infantry', reveal and put it to your hand then shuffle your deck.","โจมตีระยะไกล
Deploying, หาการ์ด 'Devil Skull - Infantry' 1 ใบจากกองการ์ด แสดงการ์ดใบนั้นแล้วนำขึ้นมือ จากนั้นทำการสับกองการ์ด"
Brave Kingdom,104,Garayann,C,unit,Devil Skull Heavy Armor,40-DS-Heavy armor,Villain,0,0,0,0,0,1,1,4000,9000,1,1,1,0,,
Brave Kingdom,104,Garayann,C,unit,Agent Fury Fist,13-Fury fist -2,Hero / Soldier,0,0,0,0,0,2,0,6000,10000,1,1,0,0,"If this unit is in the battlefield, this unit gets -2000 Power.",ถ้ายูนิตนี้อยู่ในแบทเทิลฟิลด์ ยูนิตนี้ได้รับ -2000 Power
Brave Kingdom,104,Garayann,C,unit,Assault Shining Star,27-Shining Star -3,Hero,0,1,0,0,0,2,0,3000,10000,1,1,1,0,"Ranged Attack
Deploying, this unit gets +2000 Power this turn.","โจมตีระยะไกล
Deploying, ในเทิร์นนี้ยูนิตนี้ได้รับ +2000 Power"
Brave Kingdom,104,Garayann,R,unit,"Fortune Soldier, The Musketeer",26-Fortune soldier-3,Hero / Soldier,0,0,0,0,0,2,0,2000,10000,1,1,1,1,This unit gets +1000 Power for each other friendly {Soldier} unit in the battlefield.,ยูนิตนี้ได้รับ +1000 Power ต่อยูนิต {Solider} ใบอื่นฝ่ายเราในแบทเทิลฟิลด์
Brave Kingdom,104,Garayann,C,unit,Freedom Peacemaker,17-Peacemaker -2,Hero,0,0,0,0,0,2,0,4000,9000,1,1,1,0,[Reveal 2  'Peacemaker' cards in your hand and pay C] Deploy this unit from your hand to the battlefield.,[แสดงการ์ด 'Peacemaker' ในมือ 2 ใบและจ่าย C] นำยูนิตนี้จากมือเข้าสู่แบทเทิลฟิลด์
Brave Kingdom,104,Garayann,C,unit,Vengeful Hunting Eye,48-Hunting Eyes-3,Hero,0,0,0,0,0,2,0,4000,9000,0,0,0,1,"When this unit is defeated, you may retire target unit with 2 command cost or less that attacked this unit this turn.",เมื่อยูนิตนี้พ่ายแพ้ เราสามารถรีไทร์ยูนิตเป้าหมายฝ่ายตรงข้ามที่มีค่า Command 2 หรือต่ำกว่าที่โจมตียูนิตนี้ในเทิร์นนี้
Brave Kingdom,104,Garayann,RR,unit,Agent Street Knight,55-Street Knight-3,Hero / Spy,0,0,0,0,0,3,0,4000,11000,1,1,1,0,"Deploying, Draw 3 cards then put a card from your hand to your energy zone.","Deploying, จั่วการ์ด 3 ใบจากนั้นนำการ์ดบนมือ 1 ใบไปยัง Energy Zone"
Brave Kingdom,104,Garayann,R,unit,Devil Skull Genocide,69-DS-Genocide,Villain,0,0,0,0,0,3,0,5000,11000,1,1,1,0,"Deploying, put a 'Baron Xera Corruption' and a 'Reinforcement' from your retired zone to your hand.","Deploying, นำ 'Baron Xera Corruption' และ 'Reinforcement' อย่างละ 1 ใบจากใน Retired Zone ของเรากลับขึ้นมือ"
Brave Kingdom,104,Garayann,C,unit,Enraged Thunder Bolt,61-Thunderbolt-4,Hero / Soldier,0,0,0,0,0,3,0,0,11000,1,1,1,1,[Discard a card in your hand] This unit gets bonus Power equal to Power of the discarded card this turn. Use this ability only once per turn.,[ทิ้งการ์ด 1 ใบในมือเรา] ยูนิตนี้ได้รับค่า Power เท่ากับค่า Power ของการ์ดใบที่ทิ้ง ความสามารถนี้ใช้ได้แค่เทิร์นละครั้ง
Brave Kingdom,104,Garayann,LG,unit,"Guardian, Protector of Mankind",50-Guardian-3,Hero,1,0,0,0,0,4,0,3000,15000,1,1,1,1,"Deploying, all other friendly units get +5000 Health until the beginning of your next turn.
At the beginning of your defending phase, you may +2000 Health to another target friendly unit, if you do, you cannot play defensive event card this turn.","Deploying, ยูนิตฝ่ายเราใบอื่นทั้งหมดได้รับ +5000 Health จนเริ่มเทิร์นถัดไปของเรา
เมื่อเริ่ม Defending Phase ของเรา เราสามารถให้ยูนิตเป้าหมายใบอื่นฝ่ายเราได้รับ +2000 Health ถ้าเราทำเราจะไม่สามารถเล่นการ์ด Defensive Event ได้ในเทิร์นนี้"
Brave Kingdom,104,Garayann,LG,unit,"Baron Xera, Emperor of Eatoror",45-XERA-1,Villain,1,0,0,0,0,4,1,4000,14000,1,1,1,0,"Deploying, deploy any number of 'Devil Skull' unit from your hand to the battlefield, the total command cost of the units deployed by this effect cannot exceed 3.
At the beginning of your turn, if you have 2 or more other 'Devil Skull' units in the battlefield, your opponent discards a card.","Deploying, นำยูนิต 'Devil Skull' จากบนมือเรากี่ใบก็ได้เข้าสู่แบทเทิลฟิลด์ โดยค่า Command รวมของยูนิตที่นำเข้ามาในสนามจะต้องรวมกันไม่เกิน 3
เมื่อเริ่มเทิร์นของเรา ถ้าเรามียูนิต 'Devil Skull' ใบอื่น 2 ใบหรือมากกว่าผู้เล่นฝ่ายตรงข้ามต้องทิ้งการ์ดบนมือ 1 ใบ"
Brave Kingdom,104,Garayann,R,event,Select Armor,E8-Select armor,Planning,0,0,1,0,0,0,1,0,0,0,0,0,0,"Search your deck for a {Hero} unit, reveal it and put its to your hand then shuffle your deck. If the revealed unit is 'Peacekeeper', draw a card.",หาการ์ด {Hero} 1 ใบจากกองการ์ด แสดงการ์ดใบนั้นแล้วนำขึ้นมือ จากนั้นทำการสับกองการ์ด ถ้าการ์ดใบที่แสดงเป็น 'Peacekeeper' จั่วการ์ด 1 ใบ
Brave Kingdom,104,Garayann,C,event,Double Slash,E-26-Double Slash [Deal X2 damage],Planning,0,0,1,0,0,1,0,0,0,0,0,0,0,Target friendly unit loses all its abilities and can attack twice this turn.,ยูนิตเป้าหมายฝ่ายเราสูญเสียความสามารถทั้งหมดและสามารถโจมตีได้ 2 ครั้งในเทิร์นนี้
Brave Kingdom,104,Garayann,C,event,Shielded Shotgun,E-14-DS-Auto Shotgun with face guard,Planning  / Ongoing,0,0,1,1,0,0,2,0,0,0,0,0,0,"Attached unit gets +1000 Power, +1000 Health and loses ranged attack.
Attached unit cannot be attached by other 'Weapon' event card.","ยูนิตที่ติดการ์ดใบนี้ได้รับ +1000 Power, +1000 Health และสูญเสียโจมตีระยะไกล
ยูนิตที่ติดการ์ดใบนี้ไม่สามารถติดการ์ดอีเวนท์ 'Weapon' ใบอื่นได้"
Brave Kingdom,104,Garayann,C,event,Magnetic Field,E-29-Magnetic field [Blocking Allies from being attack],Defensive,0,0,0,0,1,0,2,0,0,0,0,0,0,"Target friendly unit gets +1000 Health and gains ""At the end of this turn, draw 2 cards"" this turn.","ในเทิร์นนี้ยูนิตเป้าหมายฝ่ายเราได้รับ +1000 Health และได้รับ""ตอนจบเทิร์นจั่วการ์ด 2 ใบ"""
Brave Kingdom,104,Garayann,RR,event,Stun Grenade,E-20-Stun Grenade,Defensive,0,0,0,0,1,0,3,0,0,0,0,0,0,Target non-legendary unit cannot attack this turn.,ยูนิตเป้าหมายที่ไม่ใช่ Legendary ไม่สามารถโจมตีได้ในเทิร์นนี้